%YAML 1.1
%TAG !u! tag:unity3d.com,2011:
--- !u!1 &454044182329843987
GameObject:
  m_ObjectHideFlags: 0
  m_CorrespondingSourceObject: {fileID: 0}
  m_PrefabInstance: {fileID: 0}
  m_PrefabAsset: {fileID: 0}
  serializedVersion: 6
  m_Component:
  - component: {fileID: 454044182329843997}
  - component: {fileID: 454044182329843996}
  - component: {fileID: -2868640590780795139}
  m_Layer: 0
  m_Name: Brewery
  m_TagString: Building
  m_Icon: {fileID: 0}
  m_NavMeshLayer: 0
  m_StaticEditorFlags: 0
  m_IsActive: 1
--- !u!4 &454044182329843997
Transform:
  m_ObjectHideFlags: 0
  m_CorrespondingSourceObject: {fileID: 0}
  m_PrefabInstance: {fileID: 0}
  m_PrefabAsset: {fileID: 0}
  m_GameObject: {fileID: 454044182329843987}
  m_LocalRotation: {x: 0, y: 0, z: 0, w: 1}
  m_LocalPosition: {x: 0, y: 0, z: 0}
  m_LocalScale: {x: 1, y: 1, z: 1}
  m_Children:
  - {fileID: 2600129820194701701}
  m_Father: {fileID: 0}
  m_RootOrder: 0
  m_LocalEulerAnglesHint: {x: 0, y: 0, z: 0}
--- !u!114 &454044182329843996
MonoBehaviour:
  m_ObjectHideFlags: 0
  m_CorrespondingSourceObject: {fileID: 0}
  m_PrefabInstance: {fileID: 0}
  m_PrefabAsset: {fileID: 0}
  m_GameObject: {fileID: 454044182329843987}
  m_Enabled: 1
  m_EditorHideFlags: 0
  m_Script: {fileID: 11500000, guid: 9150d8031cae2bf4484e2e3368c0f60e, type: 3}
  m_Name: 
  m_EditorClassIdentifier: 
  description: "Beer counts as food, right? At least it keeps the rowdy types satisfied.\r"
  icon: {fileID: 21300000, guid: 03d2741a64cd2d04d80b50d31d98e3de, type: 3}
  type: 20
  stats:
    list:
    - Key: 0
      Value: 1
    - Key: 2
      Value: 1
    - Key: 6
      Value: 1
    keyCollision: 0
  baseCost: 30
  scaleSpeed: 3
  sections:
  - prefab: {fileID: 4641166759446963505, guid: ff13ae279f633344e8a0ede5b39704ca,
      type: 3}
    directions: 
  - prefab: {fileID: 7964993681717202879, guid: a5b8e45d36478964ebbb4307a8c592b9,
      type: 3}
    directions: 00000000
  - prefab: {fileID: 4656057957952714449, guid: f40447335018edd4b9ec0f11ef7914a5,
      type: 3}
    directions: 03000000
  indestructible: 0
  fitToCell: 1
--- !u!95 &-2868640590780795139
Animator:
  serializedVersion: 3
  m_ObjectHideFlags: 0
  m_CorrespondingSourceObject: {fileID: 0}
  m_PrefabInstance: {fileID: 0}
  m_PrefabAsset: {fileID: 0}
  m_GameObject: {fileID: 454044182329843987}
  m_Enabled: 1
  m_Avatar: {fileID: 0}
  m_Controller: {fileID: 9100000, guid: 83437b080e7971543af86216856db9b4, type: 2}
  m_CullingMode: 0
  m_UpdateMode: 0
  m_ApplyRootMotion: 0
  m_LinearVelocityBlending: 0
  m_WarningMessage: 
  m_HasTransformHierarchy: 1
  m_AllowConstantClipSamplingOptimization: 1
  m_KeepAnimatorControllerStateOnDisable: 0
--- !u!1001 &642847762651719331
PrefabInstance:
  m_ObjectHideFlags: 0
  serializedVersion: 2
  m_Modification:
    m_TransformParent: {fileID: 454044182329843997}
    m_Modifications:
    - target: {fileID: 3242133139914073894, guid: 12d0a700c7644d94a89df10437686996,
        type: 3}
      propertyPath: m_RootOrder
      value: 0
      objectReference: {fileID: 0}
    - target: {fileID: 3242133139914073894, guid: 12d0a700c7644d94a89df10437686996,
        type: 3}
      propertyPath: m_LocalPosition.x
      value: 0
      objectReference: {fileID: 0}
    - target: {fileID: 3242133139914073894, guid: 12d0a700c7644d94a89df10437686996,
        type: 3}
      propertyPath: m_LocalPosition.y
      value: 0
      objectReference: {fileID: 0}
    - target: {fileID: 3242133139914073894, guid: 12d0a700c7644d94a89df10437686996,
        type: 3}
      propertyPath: m_LocalPosition.z
      value: 0
      objectReference: {fileID: 0}
    - target: {fileID: 3242133139914073894, guid: 12d0a700c7644d94a89df10437686996,
        type: 3}
      propertyPath: m_LocalRotation.w
      value: 1
      objectReference: {fileID: 0}
    - target: {fileID: 3242133139914073894, guid: 12d0a700c7644d94a89df10437686996,
        type: 3}
      propertyPath: m_LocalRotation.x
      value: 0
      objectReference: {fileID: 0}
    - target: {fileID: 3242133139914073894, guid: 12d0a700c7644d94a89df10437686996,
        type: 3}
      propertyPath: m_LocalRotation.y
      value: 0
      objectReference: {fileID: 0}
    - target: {fileID: 3242133139914073894, guid: 12d0a700c7644d94a89df10437686996,
        type: 3}
      propertyPath: m_LocalRotation.z
      value: 0
      objectReference: {fileID: 0}
    - target: {fileID: 3242133139914073894, guid: 12d0a700c7644d94a89df10437686996,
        type: 3}
      propertyPath: m_LocalEulerAnglesHint.x
      value: 0
      objectReference: {fileID: 0}
    - target: {fileID: 3242133139914073894, guid: 12d0a700c7644d94a89df10437686996,
        type: 3}
      propertyPath: m_LocalEulerAnglesHint.y
      value: 0
      objectReference: {fileID: 0}
    - target: {fileID: 3242133139914073894, guid: 12d0a700c7644d94a89df10437686996,
        type: 3}
      propertyPath: m_LocalEulerAnglesHint.z
      value: 0
      objectReference: {fileID: 0}
    - target: {fileID: 3711499471555426307, guid: 12d0a700c7644d94a89df10437686996,
        type: 3}
      propertyPath: m_Name
      value: Particle System
      objectReference: {fileID: 0}
    m_RemovedComponents: []
  m_SourcePrefab: {fileID: 100100000, guid: 12d0a700c7644d94a89df10437686996, type: 3}
--- !u!4 &2600129820194701701 stripped
Transform:
  m_CorrespondingSourceObject: {fileID: 3242133139914073894, guid: 12d0a700c7644d94a89df10437686996,
    type: 3}
  m_PrefabInstance: {fileID: 642847762651719331}
  m_PrefabAsset: {fileID: 0}
