%YAML 1.1
%TAG !u! tag:unity3d.com,2011:
--- !u!1001 &128494526408167547
PrefabInstance:
  m_ObjectHideFlags: 0
  serializedVersion: 2
  m_Modification:
    m_TransformParent: {fileID: 0}
    m_Modifications:
    - target: {fileID: 4960112465644098798, guid: ac7d8bf91fb22ed48b3860642d175e0e,
        type: 3}
      propertyPath: m_LocalPosition.x
      value: 0
      objectReference: {fileID: 0}
    - target: {fileID: 4960112465644098798, guid: ac7d8bf91fb22ed48b3860642d175e0e,
        type: 3}
      propertyPath: m_LocalPosition.y
      value: 0
      objectReference: {fileID: 0}
    - target: {fileID: 4960112465644098798, guid: ac7d8bf91fb22ed48b3860642d175e0e,
        type: 3}
      propertyPath: m_LocalPosition.z
      value: 0
      objectReference: {fileID: 0}
    - target: {fileID: 4960112465644098798, guid: ac7d8bf91fb22ed48b3860642d175e0e,
        type: 3}
      propertyPath: m_LocalRotation.x
      value: -0.000000021855692
      objectReference: {fileID: 0}
    - target: {fileID: 4960112465644098798, guid: ac7d8bf91fb22ed48b3860642d175e0e,
        type: 3}
      propertyPath: m_LocalRotation.y
      value: 0
      objectReference: {fileID: 0}
    - target: {fileID: 4960112465644098798, guid: ac7d8bf91fb22ed48b3860642d175e0e,
        type: 3}
      propertyPath: m_LocalRotation.z
      value: -0
      objectReference: {fileID: 0}
    - target: {fileID: 4960112465644098798, guid: ac7d8bf91fb22ed48b3860642d175e0e,
        type: 3}
      propertyPath: m_LocalRotation.w
      value: 1
      objectReference: {fileID: 0}
    - target: {fileID: 4960112465644098798, guid: ac7d8bf91fb22ed48b3860642d175e0e,
        type: 3}
      propertyPath: m_RootOrder
      value: 0
      objectReference: {fileID: 0}
    - target: {fileID: 4960112465644098798, guid: ac7d8bf91fb22ed48b3860642d175e0e,
        type: 3}
      propertyPath: m_LocalEulerAnglesHint.x
      value: 0
      objectReference: {fileID: 0}
    - target: {fileID: 4960112465644098798, guid: ac7d8bf91fb22ed48b3860642d175e0e,
        type: 3}
      propertyPath: m_LocalEulerAnglesHint.y
      value: 0
      objectReference: {fileID: 0}
    - target: {fileID: 4960112465644098798, guid: ac7d8bf91fb22ed48b3860642d175e0e,
        type: 3}
      propertyPath: m_LocalEulerAnglesHint.z
      value: 0
      objectReference: {fileID: 0}
    - target: {fileID: 7688299690897494561, guid: ac7d8bf91fb22ed48b3860642d175e0e,
        type: 3}
      propertyPath: m_Materials.Array.size
      value: 0
      objectReference: {fileID: 0}
    - target: {fileID: 7688299690897494561, guid: ac7d8bf91fb22ed48b3860642d175e0e,
        type: 3}
      propertyPath: m_Materials.Array.data[0]
      value: 
      objectReference: {fileID: 2100000, guid: a01fd5d67e29e4d4d9be443b41a7b163, type: 2}
    - target: {fileID: 7688299690897494561, guid: ac7d8bf91fb22ed48b3860642d175e0e,
        type: 3}
      propertyPath: m_Materials.Array.data[1]
      value: 
      objectReference: {fileID: 2100000, guid: a01fd5d67e29e4d4d9be443b41a7b163, type: 2}
    - target: {fileID: 8254682334459258621, guid: ac7d8bf91fb22ed48b3860642d175e0e,
        type: 3}
      propertyPath: m_Name
      value: InvisibleTerrain
      objectReference: {fileID: 0}
    m_RemovedComponents: []
  m_SourcePrefab: {fileID: 100100000, guid: ac7d8bf91fb22ed48b3860642d175e0e, type: 3}
