%YAML 1.1
%TAG !u! tag:unity3d.com,2011:
--- !u!114 &-7074700867992982119
MonoBehaviour:
  m_ObjectHideFlags: 0
  m_CorrespondingSourceObject: {fileID: 0}
  m_PrefabInstance: {fileID: 0}
  m_PrefabAsset: {fileID: 0}
  m_GameObject: {fileID: 0}
  m_Enabled: 1
  m_EditorHideFlags: 0
  m_Script: {fileID: 11500000, guid: 3d92222dc33bd8748a934a5a0b6e6f9c, type: 3}
  m_Name: Stat Change(Clone)
  m_EditorClassIdentifier: 
  customDescription: 
  statToChange: 2
  amount: 5
  turns: 3
--- !u!114 &-7020631908405030232
MonoBehaviour:
  m_ObjectHideFlags: 0
  m_CorrespondingSourceObject: {fileID: 0}
  m_PrefabInstance: {fileID: 0}
  m_PrefabAsset: {fileID: 0}
  m_GameObject: {fileID: 0}
  m_Enabled: 1
  m_EditorHideFlags: 0
  m_Script: {fileID: 11500000, guid: 7edc53f218439334a93ef5402b24371e, type: 3}
  m_Name: Flavour Text(Clone)
  m_EditorClassIdentifier: 
  customDescription: A humble woman named Emma steps forward, only to blink away
--- !u!114 &-1641107258049006644
MonoBehaviour:
  m_ObjectHideFlags: 0
  m_CorrespondingSourceObject: {fileID: 0}
  m_PrefabInstance: {fileID: 0}
  m_PrefabAsset: {fileID: 0}
  m_GameObject: {fileID: 0}
  m_Enabled: 1
  m_EditorHideFlags: 0
  m_Script: {fileID: 11500000, guid: 97f5b40bba093e4418642a63f057e746, type: 3}
  m_Name: Send an adventurer
  m_EditorClassIdentifier: 
  outcomes:
  - {fileID: 3759444680359796729}
  - {fileID: -7074700867992982119}
--- !u!114 &-1562788683646234115
MonoBehaviour:
  m_ObjectHideFlags: 0
  m_CorrespondingSourceObject: {fileID: 0}
  m_PrefabInstance: {fileID: 0}
  m_PrefabAsset: {fileID: 0}
  m_GameObject: {fileID: 0}
  m_Enabled: 1
  m_EditorHideFlags: 0
  m_Script: {fileID: 11500000, guid: 3d92222dc33bd8748a934a5a0b6e6f9c, type: 3}
  m_Name: Stat Change(Clone)
  m_EditorClassIdentifier: 
  customDescription: 
  statToChange: 1
  amount: 10
  turns: 3
--- !u!114 &11400000
MonoBehaviour:
  m_ObjectHideFlags: 0
  m_CorrespondingSourceObject: {fileID: 0}
  m_PrefabInstance: {fileID: 0}
  m_PrefabAsset: {fileID: 0}
  m_GameObject: {fileID: 0}
  m_Enabled: 1
  m_EditorHideFlags: 0
  m_Script: {fileID: 11500000, guid: b6939337205b1e8429c312bf3490cf8a, type: 3}
  m_Name: Mirror Mirror 1
  m_EditorClassIdentifier: 
  headline: Mirror Mirror
  article: A magic mirror has been brought in by a travelling merchant, its powers
    unknown, and purpose dubious. The merchant says anyone may step forward to harness
    its effects (for a fee of course).
  image: {fileID: 21300000, guid: c605ffc0efec57a489f06585e8924bc9, type: 3}
  type: 3
  headliner: 0
  outcomes: []
  choices:
  - {fileID: -1641107258049006644}
  - {fileID: 9041381602021631540}
  - {fileID: 7687099033260704308}
  oneTime: 0
--- !u!114 &2098342876096918418
MonoBehaviour:
  m_ObjectHideFlags: 0
  m_CorrespondingSourceObject: {fileID: 0}
  m_PrefabInstance: {fileID: 0}
  m_PrefabAsset: {fileID: 0}
  m_GameObject: {fileID: 0}
  m_Enabled: 1
  m_EditorHideFlags: 0
  m_Script: {fileID: 11500000, guid: 7edc53f218439334a93ef5402b24371e, type: 3}
  m_Name: Flavour Text(Clone)
  m_EditorClassIdentifier: 
  customDescription: The dog is already perfect as it is, only gaining the softest
    fur imaginable.
--- !u!114 &3759444680359796729
MonoBehaviour:
  m_ObjectHideFlags: 0
  m_CorrespondingSourceObject: {fileID: 0}
  m_PrefabInstance: {fileID: 0}
  m_PrefabAsset: {fileID: 0}
  m_GameObject: {fileID: 0}
  m_Enabled: 1
  m_EditorHideFlags: 0
  m_Script: {fileID: 11500000, guid: 7edc53f218439334a93ef5402b24371e, type: 3}
  m_Name: Flavour Text(Clone)
  m_EditorClassIdentifier: 
  customDescription: The hero turns into a dashing knight.
--- !u!114 &3865637143280479580
MonoBehaviour:
  m_ObjectHideFlags: 0
  m_CorrespondingSourceObject: {fileID: 0}
  m_PrefabInstance: {fileID: 0}
  m_PrefabAsset: {fileID: 0}
  m_GameObject: {fileID: 0}
  m_Enabled: 1
  m_EditorHideFlags: 0
  m_Script: {fileID: 11500000, guid: 39278e0dd5327c540b33a3f9e317e51d, type: 3}
  m_Name: Chain Event(Clone)
  m_EditorClassIdentifier: 
  customDescription: Where did she go?
  next: {fileID: 11400000, guid: 11d6f1ac4fc7f984db0c8155be962fae, type: 2}
  toFront: 0
--- !u!114 &7687099033260704308
MonoBehaviour:
  m_ObjectHideFlags: 0
  m_CorrespondingSourceObject: {fileID: 0}
  m_PrefabInstance: {fileID: 0}
  m_PrefabAsset: {fileID: 0}
  m_GameObject: {fileID: 0}
  m_Enabled: 1
  m_EditorHideFlags: 0
  m_Script: {fileID: 11500000, guid: 97f5b40bba093e4418642a63f057e746, type: 3}
  m_Name: Send a dog
  m_EditorClassIdentifier: 
  outcomes:
  - {fileID: 2098342876096918418}
  - {fileID: -1562788683646234115}
--- !u!114 &9041381602021631540
MonoBehaviour:
  m_ObjectHideFlags: 0
  m_CorrespondingSourceObject: {fileID: 0}
  m_PrefabInstance: {fileID: 0}
  m_PrefabAsset: {fileID: 0}
  m_GameObject: {fileID: 0}
  m_Enabled: 1
  m_EditorHideFlags: 0
  m_Script: {fileID: 11500000, guid: 97f5b40bba093e4418642a63f057e746, type: 3}
  m_Name: Send a villager
  m_EditorClassIdentifier: 
  outcomes:
  - {fileID: -7020631908405030232}
  - {fileID: 3865637143280479580}
