%YAML 1.1
%TAG !u! tag:unity3d.com,2011:
--- !u!114 &11400000
MonoBehaviour:
  m_ObjectHideFlags: 0
  m_CorrespondingSourceObject: {fileID: 0}
  m_PrefabInstance: {fileID: 0}
  m_PrefabAsset: {fileID: 0}
  m_GameObject: {fileID: 0}
  m_Enabled: 1
  m_EditorHideFlags: 0
  m_Script: {fileID: 11500000, guid: b6939337205b1e8429c312bf3490cf8a, type: 3}
  m_Name: Crabs
  m_EditorClassIdentifier: 
  headline: Crabs!
  article: There are too many crabs!
  image: {fileID: 21300000, guid: 81734682161e51d45b1917ff3aeb6746, type: 3}
  type: 2
  headliner: 0
  outcomes: []
  choices:
  - {fileID: -487042889847760454}
  - {fileID: 6807836616848578861}
--- !u!114 &-5310536114517495875
MonoBehaviour:
  m_ObjectHideFlags: 0
  m_CorrespondingSourceObject: {fileID: 0}
  m_PrefabInstance: {fileID: 0}
  m_PrefabAsset: {fileID: 0}
  m_GameObject: {fileID: 0}
  m_Enabled: 1
  m_EditorHideFlags: 0
  m_Script: {fileID: 11500000, guid: 3d92222dc33bd8748a934a5a0b6e6f9c, type: 3}
  m_Name: Stat Change(Clone)
  m_EditorClassIdentifier: 
  customDescription: 
  statToChange: 1
  amount: 5
  turns: 5
--- !u!114 &-2199845909788861087
MonoBehaviour:
  m_ObjectHideFlags: 0
  m_CorrespondingSourceObject: {fileID: 0}
  m_PrefabInstance: {fileID: 0}
  m_PrefabAsset: {fileID: 0}
  m_GameObject: {fileID: 0}
  m_Enabled: 1
  m_EditorHideFlags: 0
  m_Script: {fileID: 11500000, guid: 3d92222dc33bd8748a934a5a0b6e6f9c, type: 3}
  m_Name: Stat Change(Clone)
  m_EditorClassIdentifier: 
  customDescription: 
  statToChange: 2
  amount: -3
  turns: 5
--- !u!114 &-2016801114065334152
MonoBehaviour:
  m_ObjectHideFlags: 0
  m_CorrespondingSourceObject: {fileID: 0}
  m_PrefabInstance: {fileID: 0}
  m_PrefabAsset: {fileID: 0}
  m_GameObject: {fileID: 0}
  m_Enabled: 1
  m_EditorHideFlags: 0
  m_Script: {fileID: 11500000, guid: 7edc53f218439334a93ef5402b24371e, type: 3}
  m_Name: Flavour Text(Clone)
  m_EditorClassIdentifier: 
  customDescription: Smashing the crabs to pieces has been great exercise!
--- !u!114 &-487042889847760454
MonoBehaviour:
  m_ObjectHideFlags: 0
  m_CorrespondingSourceObject: {fileID: 0}
  m_PrefabInstance: {fileID: 0}
  m_PrefabAsset: {fileID: 0}
  m_GameObject: {fileID: 0}
  m_Enabled: 1
  m_EditorHideFlags: 0
  m_Script: {fileID: 11500000, guid: 97f5b40bba093e4418642a63f057e746, type: 3}
  m_Name: Tonight we feast!
  m_EditorClassIdentifier: 
  outcomes:
  - {fileID: 1451837827470189156}
  - {fileID: -2199845909788861087}
  - {fileID: -5310536114517495875}
--- !u!114 &1451837827470189156
MonoBehaviour:
  m_ObjectHideFlags: 0
  m_CorrespondingSourceObject: {fileID: 0}
  m_PrefabInstance: {fileID: 0}
  m_PrefabAsset: {fileID: 0}
  m_GameObject: {fileID: 0}
  m_Enabled: 1
  m_EditorHideFlags: 0
  m_Script: {fileID: 11500000, guid: 7edc53f218439334a93ef5402b24371e, type: 3}
  m_Name: Flavour Text(Clone)
  m_EditorClassIdentifier: 
  customDescription: While delicious, everyone is too bloated now to fight. Just
    gonna have a quick lie down...
--- !u!114 &6807836616848578861
MonoBehaviour:
  m_ObjectHideFlags: 0
  m_CorrespondingSourceObject: {fileID: 0}
  m_PrefabInstance: {fileID: 0}
  m_PrefabAsset: {fileID: 0}
  m_GameObject: {fileID: 0}
  m_Enabled: 1
  m_EditorHideFlags: 0
  m_Script: {fileID: 11500000, guid: 97f5b40bba093e4418642a63f057e746, type: 3}
  m_Name: Send adventurers to clear them out.
  m_EditorClassIdentifier: 
  outcomes:
  - {fileID: -2016801114065334152}
  - {fileID: 7820212843733379569}
--- !u!114 &7820212843733379569
MonoBehaviour:
  m_ObjectHideFlags: 0
  m_CorrespondingSourceObject: {fileID: 0}
  m_PrefabInstance: {fileID: 0}
  m_PrefabAsset: {fileID: 0}
  m_GameObject: {fileID: 0}
  m_Enabled: 1
  m_EditorHideFlags: 0
  m_Script: {fileID: 11500000, guid: 3d92222dc33bd8748a934a5a0b6e6f9c, type: 3}
  m_Name: Stat Change(Clone)
  m_EditorClassIdentifier: 
  customDescription: 
  statToChange: 2
  amount: 3
  turns: 5
